{
   "id":-1,
   "aod_id":437,
   "tmdb_id":75865,
   "tmdb_season_id":96901,
   "tmdb_season_number":1,
   "episodes":[
      {
         "id":-1,
         "aod_media_id":6391,
         "tmdb_id":1408539,
         "tmdb_number":1,
         "opening_start":39000,
         "opening_duration":90000,
         "ending_start":0,
         "ending_duration":0
      },
      {
         "id":-1,
         "aod_media_id":6392,
         "tmdb_id":1419393,
         "tmdb_number":2,
         "opening_start":0,
         "opening_duration":90000,
         "ending_start":0,
         "ending_duration":0
      },
      {
         "id":-1,
         "aod_media_id":6393,
         "tmdb_id":1422666,
         "tmdb_number":3,
         "opening_start":92000,
         "opening_duration":90000,
         "ending_start":0,
         "ending_duration":0
      },
      {
         "id":-1,
         "aod_media_id":6394,
         "tmdb_id":1425344,
         "tmdb_number":4,
         "opening_start":26000,
         "opening_duration":90000,
         "ending_start":0,
         "ending_duration":0
      },
      {
         "id":-1,
         "aod_media_id":6395,
         "tmdb_id":1428798,
         "tmdb_number":5,
         "opening_start":44000,
         "opening_duration":90000,
         "ending_start":0,
         "ending_duration":0
      },
      {
         "id":-1,
         "aod_media_id":6396,
         "tmdb_id":1431737,
         "tmdb_number":6,
         "opening_start":25000,
         "opening_duration":90000,
         "ending_start":0,
         "ending_duration":0
      },
      {
         "id":-1,
         "aod_media_id":6397,
         "tmdb_id":1435080,
         "tmdb_number":7,
         "opening_start":70000,
         "opening_duration":90000,
         "ending_start":0,
         "ending_duration":0
      },
      {
         "id":-1,
         "aod_media_id":6398,
         "tmdb_id":1435081,
         "tmdb_number":8,
         "opening_start":185000,
         "opening_duration":90000,
         "ending_start":0,
         "ending_duration":0
      },
      {
         "id":-1,
         "aod_media_id":6399,
         "tmdb_id":1435082,
         "tmdb_number":9,
         "opening_start":12000,
         "opening_duration":90000,
         "ending_start":0,
         "ending_duration":0
      },
      {
         "id":-1,
         "aod_media_id":6400,
         "tmdb_id":1452857,
         "tmdb_number":10,
         "opening_start":45000,
         "opening_duration":90000,
         "ending_start":0,
         "ending_duration":0
      },
      {
         "id":-1,
         "aod_media_id":6401,
         "tmdb_id":1456930,
         "tmdb_number":11,
         "opening_start":50000,
         "opening_duration":90000,
         "ending_start":0,
         "ending_duration":0
      },
      {
         "id":-1,
         "aod_media_id":6402,
         "tmdb_id":1456931,
         "tmdb_number":12,
         "opening_start":132000,
         "opening_duration":90000,
         "ending_start":0,
         "ending_duration":0
      }
   ]
}
